[
  {
    "name": "Pepper",
    "price": 1,
    "calorie": 32
  },
  {
    "name": "Tomatoe",
    "price": 2,
    "calorie": 18
  },
  {
    "name": "Garlic",
    "price": 0.5,
    "calorie": 149
  },
  {
    "name": "Onion",
    "price": 0.2,
    "calorie": 40
  },
  {
    "name": "Semolina",
    "price": 3,
    "calorie": 360
  },
  {
    "name": "Potatoe",
    "price": 1.2,
    "calorie": 100
  },
  {
    "name": "Carrot",
    "price": 0.7,
    "calorie": 40
  },
  {
    "name": "Harissa",
    "price": 1,
    "calorie": 76
  },
  {
    "name": "Rice",
    "price": 2.2,
    "calorie": 132
  },
  {
    "name": "Egg",
    "price": 1,
    "calorie": 80
  },
  {
    "name": "Tomatoe Paste",
    "price": 2.5,
    "calorie": 82
  },
  {
    "name": "Bulgur",
    "price": 4,
    "calorie": 342
  },
  {
    "name": "Parsley",
    "price": 0,
    "calorie": 32
  },
  {
    "name": "Bird Tongue",
    "price": 0.25,
    "calorie": 32
  },
  {
    "name": "Malsouqa",
    "price": 0.6,
    "calorie": 50
  },
  {
    "name": "Tuna",
    "price": 4.5,
    "calorie": 130
  },
  {
    "name": "Spaghetti",
    "price": 0.82,
    "calorie": 158
  },
  {
    "name": "Chicken",
    "price": 10,
    "calorie": 239
  },
  {
    "name": "Meat",
    "price": 20,
    "calorie": 143
  },
  {
    "name": "Cumin",
    "price": 0.4,
    "calorie": 100
  },
  {
    "name": "Cucumber",
    "price": 1.5,
    "calorie": 15
  },
  {
    "name": "Merguaz",
    "price": 8,
    "calorie": 283
  },
  {
    "name": "Semolina",
    "price": 2,
    "calorie": 360
  },
  {
    "name": "Milk",
    "price": 1.35,
    "calorie": 42
  },
  {
    "name": "Sugar",
    "price": 1.2,
    "calorie": 10
  },
  {
    "name": "Raisin",
    "price": 3.5,
    "calorie": 67
  },
  {
    "name": "Dweeda",
    "price": 0.9,
    "calorie": 158
  },
  {
    "name": "Chickpea",
    "price": 2.5,
    "calorie": 364
  },
  {
    "name": "Oil",
    "price": 1,
    "calorie": 200
  },
  {
    "name": "Curcuma",
    "price": 0.75,
    "calorie": 32
  },
  {
    "name": "Black Pepper",
    "price": 0.5,
    "calorie": 60
  },
  {
    "name": "Salt",
    "price": 0.25,
    "calorie": 32
  },
  {
    "name": "Cinnamon",
    "price": 0.25,
    "calorie": 250
  },
  {
    "name": "Cannelloni",
    "price": 3,
    "calorie": 154
  },
  {
    "name": "Bread",
    "price": 1,
    "calorie": 140
  },
  {
    "name": "Horseradish",
    "price": 0.7,
    "calorie": 60
  }
]
